{"category":0,"total":6766,"page":1,"per_page":10,"last_page":677,"news":[{"id":12634,"title":"Заглянуть внутрь клетки: как компьютерные алгоритмы помогают исследовать метаболические процессы на самом глубоком уровне","image_small":"https://news.itmo.ru/images/news/small/p12634.jpg","image_big":"https://news.itmo.ru/images/news/big/p12634.jpg","creation_date":"2022-06-14 13:01:59","date":"2022-06-14 13:01:59","view_count":270,"parent_category":{"category_id":1,"category_title":"Наука","color_title":"powder-blue","color":"#B8C9F1"},"category":{"category_id":5,"category_title":"IT","color_title":"teal","color":"#3A6F81"},"url":"http://news.itmo.ru/ru/science/it/news/12634/"},{"id":12636,"title":"ИТМО вместе с АГНИ и ПАО «Татнефть» будет готовить специалистов на стыке ИИ и биотехнологий","image_small":"https://news.itmo.ru/images/news/small/p12636.jpg","image_big":"https://news.itmo.ru/images/news/big/p12636.jpg","creation_date":"2022-06-10 18:33:28","date":"2022-06-10 18:33:28","view_count":710,"parent_category":{"category_id":2,"category_title":"Образование","color_title":"orange","color":"#E67E22"},"category":{"category_id":9,"category_title":"Сотрудничество","color_title":"orange","color":"#E67E22"},"url":"http://news.itmo.ru/ru/education/cooperation/news/12636/"},{"id":12633,"title":"Больше лазеров в индустрии: в ИТМО открывается новая специализация «Промышленные лазерные технологии»","image_small":"https://news.itmo.ru/images/news/small/p12633.jpg","image_big":"https://news.itmo.ru/images/news/big/p12633.jpg","creation_date":"2022-06-09 16:28:04","date":"2022-06-09 16:28:04","view_count":869,"parent_category":{"category_id":2,"category_title":"Образование","color_title":"orange","color":"#E67E22"},"category":{"category_id":8,"category_title":"Тренды","color_title":"orange","color":"#E67E22"},"url":"http://news.itmo.ru/ru/education/trend/news/12633/"},{"id":12632,"title":"Владимир Васильев на X форуме ведущих вузов «Будущее высшей школы»: «Сильный ИИ станет основой для персонифицированного образования»","image_small":"https://news.itmo.ru/images/news/small/p12632.jpg","image_big":"https://news.itmo.ru/images/news/big/p12632.jpg","creation_date":"2022-06-09 12:07:49","date":"2022-06-09 12:07:49","view_count":932,"parent_category":{"category_id":2,"category_title":"Образование","color_title":"orange","color":"#E67E22"},"category":{"category_id":8,"category_title":"Тренды","color_title":"orange","color":"#E67E22"},"url":"http://news.itmo.ru/ru/education/trend/news/12632/"},{"id":12630,"title":"Чувства, запахи и вкусы в эпоху постковида: что можно увидеть, услышать и почувствовать на ежегодной выставке дипломных проектов STAGE в ИТМО","image_small":"https://news.itmo.ru/images/news/small/p12630.jpg","image_big":"https://news.itmo.ru/images/news/big/p12630.jpg","creation_date":"2022-06-08 18:45:23","date":"2022-06-08 18:45:23","view_count":767,"parent_category":{"category_id":2,"category_title":"Образование","color_title":"orange","color":"#E67E22"},"category":{"category_id":8,"category_title":"Тренды","color_title":"orange","color":"#E67E22"},"url":"http://news.itmo.ru/ru/education/trend/news/12630/"},{"id":12628,"title":"ИТМО укрепил позиции в топ-15 лучших российских вузов в национальном рейтинге RAEX","image_small":"https://news.itmo.ru/images/news/small/p12628.jpg","image_big":"https://news.itmo.ru/images/news/big/p12628.jpg","creation_date":"2022-06-08 11:25:40","date":"2022-06-08 11:25:40","view_count":1254,"parent_category":{"category_id":4,"category_title":"Жизнь университета","color_title":"magenta","color":"#9B59B6"},"category":{"category_id":16,"category_title":"Рейтинги","color_title":"magenta","color":"#9B59B6"},"url":"http://news.itmo.ru/ru/university_live/ratings/news/12628/"},{"id":12626,"title":"Системы на кристаллах и устройства, которые на самом деле смогут «думать»: чему будут учить в совместной лаборатории МТС ИИ и ИТМО","image_small":"https://news.itmo.ru/images/news/small/p12626.jpg","image_big":"https://news.itmo.ru/images/news/big/p12626.jpg","creation_date":"2022-06-07 16:14:02","date":"2022-06-07 16:14:02","view_count":727,"parent_category":{"category_id":2,"category_title":"Образование","color_title":"orange","color":"#E67E22"},"category":{"category_id":9,"category_title":"Сотрудничество","color_title":"orange","color":"#E67E22"},"url":"http://news.itmo.ru/ru/education/cooperation/news/12626/"},{"id":12625,"title":"Искали на баттле победу, а нашли семью: как создается главное студенческое событие Первого неклассического — ITMO.Megabattle","image_small":"https://news.itmo.ru/images/news/small/p12625.jpg","image_big":"https://news.itmo.ru/images/news/big/p12625.jpg","creation_date":"2022-06-07 16:00:13","date":"2022-06-07 16:00:13","view_count":1197,"parent_category":{"category_id":4,"category_title":"Жизнь университета","color_title":"magenta","color":"#9B59B6"},"category":{"category_id":35,"category_title":"Социальная активность","color_title":"magenta","color":"#9B59B6"},"url":"http://news.itmo.ru/ru/university_live/social_activity/news/12625/"},{"id":12623,"title":"Искусственный интеллект + химия: почему стоит участвовать в воркшопе и хакатоне DataCon от ИТМО ","image_small":"https://news.itmo.ru/images/news/small/p12623.jpg","image_big":"https://news.itmo.ru/images/news/big/p12623.jpg","creation_date":"2022-06-06 15:50:48","date":"2022-06-06 15:50:48","view_count":1175,"parent_category":{"category_id":1,"category_title":"Наука","color_title":"plum","color":"#5E345E"},"category":{"category_id":21,"category_title":"LifeScience","color_title":"teal","color":"#3A6F81"},"url":"http://news.itmo.ru/ru/science/life_science/news/12623/"},{"id":12620,"title":"Стресс, нагрузки и здоровье: как и зачем участвовать в первом масштабном исследовании ИТМО о качестве жизни в академической среде","image_small":"https://news.itmo.ru/images/news/small/p12620.jpg","image_big":"https://news.itmo.ru/images/news/big/p12620.jpg","creation_date":"2022-06-03 12:19:12","date":"2022-06-03 12:19:12","view_count":2020,"parent_category":{"category_id":4,"category_title":"Жизнь университета","color_title":"magenta","color":"#9B59B6"},"category":{"category_id":35,"category_title":"Социальная активность","color_title":"magenta","color":"#9B59B6"},"url":"http://news.itmo.ru/ru/university_live/social_activity/news/12620/"}]}